{
  "data": [
      {
          "title":"menu.dashboard",
          "showsubmenu":false,
          "submenu":[],
          "key":"dashboard",
          "chivron": "down",
          "iconClass":"down-chevron-icon down-chevron-white"
        },
        {
          "title":"menu.inbox",
          "showsubmenu":true,
          "key":"banu",
          "chivron": "down",
          "submenu":[{
            "title":"menu.notification",
            "key":"inbox/notification"
          },
          {
            "title":"menu.history",
            "key":"inbox/transaction"
          }],
          "iconClass":"down-chevron-icon down-chevron-white"
        },
        {
          "title":"menu.myUsage",
          "showsubmenu":false,
          "submenu":[],
          "key":"myusage",
          "chivron": "down",
          "iconClass":"down-chevron-icon down-chevron-white"
        },
        {
          "title":"menu.buyPackage.postpaid",
          "showsubmenu":false,
          "submenu":[],
          "key":"storefront",
          "chivron": "down",
          "iconClass":"down-chevron-icon down-chevron-white"
        },
        {
          "title":"menu.transactionPostpaid",
          "showsubmenu":true,
          "restrict": true,
          "key":"transaction",
          "chivron": "down",
          "submenu":[
          {
            "title":"menu.billing",
            "key":"billing"
          },
          {
            "title":"menu.spendLimit",
            "key":"spend-limit"
          }],
          "iconClass":"down-chevron-icon down-chevron-white"
        },
        {
          "title":"menu.roaming",
          "showsubmenu":false,
          "key":"roaming",
          "submenu":[],
          "chivron": "down",
          "iconClass":"down-chevron-icon down-chevron-white"
        },{
          "title":"menu.myAccount",
          "showsubmenu":false,
          "submenu":[],
          "key":"manage-subscription",
          "chivron": "down",
          "iconClass":"down-chevron-icon down-chevron-white"
        },{
          "title":"menu.help",
          "showsubmenu":true,
          "submenu":[{
            "title":"menu.faq",
            "key":"faq"
          },{
            "title":"menu.store",
            "key":"store-locator"
          },{
            "title":"menu.contact",
            "key":"contact-us"
          },{
            "title":"menu.about",
            "key":"answer/a38afca9-31ca-4d7d-acb9-3c4fd8a69859"
          },{
            "title":"menu.term",
            "key":"answer/9d7a73d4-5529-4915-be7c-59e2003f36c1"
          }],
          "key":"banu",
          "chivron": "down",
          "iconClass":"down-chevron-icon down-chevron-white"
        }
  ]
}
