<svg width="48" height="48" xmlns="http://www.w3.org/2000/svg">
    <path class="base" d="M13.3 18.6a1 1 0 0 1 1.4 0l2.8 2.8a1 1 0 0 1-1.4 1.4L13.3 20a1 1 0 0 1 0-1.4zm17 2.8l3-3a1 1 0 0 1 1.4 1.4l-3 3a1 1 0 1 1-1.5-1.4z" />
    <path class="accent" d="M24 27.8l3.5-3.5a1 1 0 0 1 1.5 1.4l-3.6 3.5-1.4 1.4-5-5a1 1 0 1 1 1.5-1.3l3.5 3.5z" />
</svg>
