<svg width="48" height="48" xmlns="http://www.w3.org/2000/svg">
    <path class="base" d="M16 40h-4.764a2 2 0 0 1-1.789-2.894L12 32V20c0-5.592 3.824-10.29 9-11.622V7a3 3 0 0 1 6 0v1.378c5.176 1.332 9 6.03 9 11.622v12l2.553 5.106A2 2 0 0 1 36.763 40H32a1 1 0 0 1 0-2h4.353a.4.4 0 0 0 .358-.579L34 32H14l-2.71 5.421a.4.4 0 0 0 .357.579H16a1 1 0 0 1 0 2zm-2-8h20V20c0-5.523-4.477-10-10-10s-10 4.477-10 10v10h13a1 1 0 0 1 0 2H14zm9-23.959a12.16 12.16 0 0 1 2 0V7a1 1 0 0 0-2 0v1.041zM31 32a1 1 0 1 1 0-2 1 1 0 0 1 0 2z" fill-rule="nonzero" />
    <path class="accent" d="M24.481 42.007l3.536-3.535a1 1 0 1 1 1.414 1.414l-3.535 3.535-1.415 1.415-4.95-4.95a1 1 0 0 1 1.415-1.414l3.535 3.535z" />
</svg>
