<svg width="48" height="48" xmlns="http://www.w3.org/2000/svg">
    <path class="accent" d="M19 35.6a1 1 0 0 1 1.5 0l3.5 3.6 3.6-3.6A1 1 0 1 1 29 37l-5 5-5-5a1 1 0 0 1 0-1.4z" />
    <path class="base" d="M31 32.1l7.9-7.8c.4-.4.4-1 0-1.4l-6.4-6.4-7.8-7.7a1 1 0 0 0-1.4 0L9.2 22.9a1 1 0 0 0 0 1.4l7 7.1 1.4 1.4a1 1 0 0 1-1.4 1.4l-1.4-1.4L7 25a2 2 0 0 1 0-2.8L22.6 6.6a2 2 0 0 1 2.8 0l7.8 7.8 7.8 7.8c.8.8.8 2 0 2.8l-8.5 8.5-.7.7a1 1 0 0 1-1.4-1.4l.7-.7zM24 15c.6 0 1 .4 1 1v10a1 1 0 0 1-2 0V16c0-.6.4-1 1-1zm0 14a1 1 0 1 1 0 2 1 1 0 0 1 0-2z" />
</svg>
